3 Case study - The 2019 Canadian Federal Election | Telling Stories with Data
…
# Make our own
cleaned_2019_elections_data %>% 
  # Using group_by and summarise means that whatever summary statistics we 
  # construct will be on a party basis. We could group_by multiple variables and
  # similarly, we could create a bunch of different other summary statistics.
  group_by(party) %>% 
  summarise(min = min(votes),
            mean = mean(votes),
            max = max(votes))

## # A tibble: 23 x 4
##    party                         min   mean   max
##    <chr>                       <dbl>  <dbl> <dbl>
##  1 Animal Protection Party       0.3  0.447   0.7
##  2 Bloc Québécois                4   32.1    58.2
##  3 CFF - Canada's Fourth Front   0.1  0.186   0.3
##  4 Christian Heritage Party      0.2  0.737   3.3
##  5 Communist                     0.1  0.24    0.7
##  6 Conservative                  2.3 34.0    85.5
##  7 Green Party                   1.3  6.46   49.1
##  8 Independent                   0.1  1.16   32.6
##  9 Liberal                       4.1 33.5    62.2
## 10 Libertarian                   0.3  0.604   2.4
## # … with 13 more rows
…
