9 Case study - TTC Subway Delays | Data-first: Telling stories with data and quantitative analysis in R
…
Our new 1-line data frame looks like:

subway_delay_package

## # A tibble: 1 x 10
##   title id    topics civic_issues excerpt dataset_category num_resources formats
##   <chr> <chr> <chr>  <chr>        <chr>   <chr>                    <int> <chr>  
## 1 TTC … 996c… Trans… Mobility     TTC Su… Document                    35 XLSX   
## # … with 2 more variables: refresh_rate <chr>, last_refreshed <date>

Now we can pass this as an argument to list_package_resources():

list_package_resources(subway_delay_package)

## # A tibble: 35 x 4
##    name                         id                          format last_modified
##    <chr>                        <chr>                       <chr>  <date>       
##  1 ttc-subway-delay-codes       fece136b-224a-412a-b191-8d… XLSX   2019-08-15   
##  2 ttc-subway-delay-jan-2014-a… 6664420f-316f-4f94-9ba4-d4… XLSX   2019-08-15   
##  3 ttc-subway-delay-may-2017    d1159888-0035-45a0-b238-86… XLSX   2019-08-15   
##  4 ttc-subway-delay-june-2017   240d8e8c-d300-4f91-b94f-cb… XLSX   2019-08-15   
##  5 ttc-subway-delay-july-2017   98d4ac77-aa9f-40a3-97ee-6f… XLSX   2019-08-15   
##  6 ttc-subway-delay-august-2017 92e7649a-cf2f-4ac7-9802-b7… XLSX   2019-08-15   
##  7 ttc-subway-delay-september-… 61412f10-656b-4992-9a1a-a1… XLSX   2019-08-15   
##  8 ttc-subway-delay-october-20… 69a6db37-7982-49c7-8dbc-56… XLSX   2019-08-15   
##  9 ttc-subway-delay-november-2… 10080217-8022-41c0-a8ba-2a… XLSX   2019-08-15   
## 10 ttc-subway-delay-december-2… a731c4bb-630a-4530-b590-b3… XLSX   2019-08-15   
## # … with 25 more rows
…
9.2.2 Retrieving the data

Suppose we’re interested in looking at the delay in September of 2018. We can retrieve the data by filter()ing this table to the corresponding line, and then using get_resource().

subway_sept2018 <- subway_delay_package %>% # Start with the package 
  list_package_resources() %>% # List the resources in the package
  filter(name == "ttc-subway-delay-september-2018") %>% # Only keep the resource we want 
  get_resource()

Finally we have the data frame that we want:

subway_sept2018

## # A tibble: 1,794 x 10
##    Date                Time  Day   Station Code  `Min Delay` `Min Gap` Bound
##    <dttm>              <chr> <chr> <chr>   <chr>       <dbl>     <dbl> <chr>
##  1 2018-09-01 00:00:00 00:22 Satu… PAPE S… SUUT           14        18 E    
##  2 2018-09-01 00:00:00 00:24 Satu… ROYAL … TUO             6        10 W    
##  3 2018-09-01 00:00:00 00:51 Satu… FINCH … MUNCA           0         0 <NA> 
##  4 2018-09-01 00:00:00 04:00 Satu… BLOOR … MUO             0         0 <NA> 
##  5 2018-09-01 00:00:00 05:40 Satu… GLENCA… MUNCA           0         0 <NA> 
##  6 2018-09-01 00:00:00 05:45 Satu… MUSEUM… MUNCA           0         0 <NA> 
##  7 2018-09-01 00:00:00 06:31 Satu… WILSON… MUNOA           5        10 S    
##  8 2018-09-01 00:00:00 06:50 Satu… NORTH … EUSC            0         0 S    
##  9 2018-09-01 00:00:00 06:50 Satu… WILSON… MUNOA           5        10 S    
## 10 2018-09-01 00:00:00 07:05 Satu… UNION … MUPAA           3         8 N    
## # … with 1,784 more rows, and 2 more variables: Line <chr>, Vehicle <dbl>

9.3 Plotting

9.3.1 Example 1: Delays by line

One thing we might be interested in is the number of delays observed in each subway line. In the dataframe, each row represents one delay, and the affected subway line is recorded in the Line column:

# See what the "Line" column looks like
subway_sept2018 %>% select(Line)

## # A tibble: 1,794 x 1
##    Line 
##    <chr>
##  1 BD   
##  2 BD   
##  3 YU   
##  4 BD   
##  5 YU   
##  6 YU   
##  7 YU   
##  8 YU   
##  9 YU   
## 10 YU   
## # … with 1,784 more rows
…
9.3.2 Example 2: Delays by time of day

Here I’m interested in the Time column which records the time of day of the delay. Here’s what the column looks like:

# Show only the Time column
subway_sept2018 %>% select(Time)

## # A tibble: 1,794 x 1
##    Time 
##    <chr>
##  1 00:22
##  2 00:24
##  3 00:51
##  4 04:00
##  5 05:40
##  6 05:45
##  7 06:31
##  8 06:50
##  9 06:50
## 10 07:05
## # … with 1,784 more rows

The data isn’t quite in the right format. Notice that we’re only interested in keeping the hour part (i.e. the 2 numbers before the :). We can do this using the separate() function from the tidyr package.

hour_counts <- subway_sept2018 %>% 
  # Separate Time into hour and minute
  separate(Time, into = c("hour", "minute"), sep = ":") %>%
  # Group by hour so that our counting function will count by groups 
  group_by(hour) %>%
  # Count
  summarise(number_of_delays = n())

# Print
hour_counts

## # A tibble: 24 x 2
##    hour  number_of_delays
##    <chr>            <int>
##  1 00                  53
##  2 01                  54
##  3 02                  20
##  4 03                  10
##  5 04                  56
##  6 05                  60
##  7 06                  73
##  8 07                  90
##  9 08                 131
## 10 09                  84
## # … with 14 more rows
…
