14 Case study - Opinions about a casino in Toronto | Data-first: Telling stories with data and quantitative analysis in R
…
14.1.2 Getting the right kind of object

The object casino_resource isn’t quite useable yet, because it’s (inconveniently) stored as a list of 2 data frames:

# Check what kind of object the casino_resource object is
class(casino_resource)

## [1] "list"

If we just return the object, we can see that the 2nd list item is empty, and we just want to keep the first one:

casino_resource

## $tblSurvey
## # A tibble: 17,766 x 94
##    SurveyID Q1_A  Q1_B1 Q1_B2 Q1_B3 Q2_A  Q2_B  Q3_A  Q3_B  Q3_C  Q3_D  Q3_E 
##       <dbl> <chr> <chr> <chr> <chr> <chr> <chr> <chr> <chr> <chr> <chr> <chr>
##  1        1 Stro… Do n… Do n… Do n… Does… "As … Not … Very… Not … Not … Not …
##  2        2 Stro… Econ… Jobs  Arts… Fits… "Cos… Very… Very… Very… Very… Very…
##  3        3 Stro… Ther… If t… <NA>  Fits… "Big… Very… Very… Very… Very… Very…
##  4        4 Some… beli… mone… evid… Does… "My … Very… Very… Some… Some… Very…
##  5        5 Neut… Like… Conc… <NA>  Neut… "Aga… Very… Very… Very… Not … Very…
##  6        6 Stro… have… <NA>  <NA>  Does… "Tor… Not … Not … Not … Not … Not …
##  7        7 Stro… The … Peop… We s… Does… "#3 … Not … Not … Not … Not … Not …
##  8        8 Stro… It w… Mora… <NA>  Does… "Cas… Very… Very… Very… Very… Very…
##  9        9 Stro… It's… traf… heal… Does… "No … Not … Very… Not … Not … Some…
## 10       10 Stro… Toro… Avoi… Prov… Fits… "Tor… Very… Very… Very… Not … Very…
## # … with 17,756 more rows, and 82 more variables: Q3_F <chr>, Q3_G <chr>,
## #   Q3_H <chr>, Q3_I <chr>, Q3_J <chr>, Q3_K <chr>, Q3_L <chr>, Q3_M <chr>,
## #   Q3_N <chr>, Q3_O <chr>, Q3_P <chr>, Q3_Q <chr>, Q3_Q_Other <chr>,
## #   Q3_Comments <chr>, Q4_A <chr>, Q5 <chr>, Q6 <chr>, Q6_Comments <chr>,
## #   Q7_A_StandAlone <chr>, Q7_A_Integrated <chr>, Q7_A1 <chr>, Q7_A2 <chr>,
## #   Q7_A3 <chr>, Q7_A_A <chr>, Q7_A_B <chr>, Q7_A_C <chr>, Q7_A_D <chr>,
## #   Q7_A_E <chr>, Q7_A_F <chr>, Q7_A_G <chr>, Q7_A_H <chr>, Q7_A_I <chr>,
## #   Q7_A_J <chr>, Q7_A_J_Other <chr>, Q7_B_StandAlone <chr>,
## #   Q7_B_Integrated <chr>, Q7_B1 <chr>, Q7_B2 <chr>, Q7_B3 <chr>, Q7_B_A <chr>,
…
