18 Exploratory data analysis | Telling Stories with Data
…
library(ggrepel)

18.3 TTC subway delays

This package provides an interface to all data available on the Open Data Portal provided by the City of Toronto.

Use the list_packages function to look at what’s available

all_data <- list_packages(limit = 500)
all_data

## # A tibble: 336 x 10
##    title id    topics civic_issues excerpt dataset_category num_resources
##    <chr> <chr> <chr>  <chr>        <chr>   <chr>                    <int>
##  1 Dail… 8a6e… City … Affordable … "Daily… Table                        8
##  2 Civi… 7d0d… City … Affordable … "The O… Document                     2
##  3 Body… c405… City … <NA>         "This … Table                        2
##  4 Stre… 1db3… City … Mobility     "Trans… Map                          1
##  5 Stre… 74f6… City … <NA>         "Publi… Map                          1
##  6 Stre… 821f… City … <NA>         "Publi… Map                          1
##  7 Stre… ccfd… City … <NA>         "Poste… Map                          1
##  8 Stre… cf70… City … <NA>         "Poste… Map                          1
##  9 Stre… 99b1… City … <NA>         "Infor… Map                          1
## 10 Stre… 71e6… Trans… <NA>         "Bike … Map                          1
## # … with 326 more rows, and 3 more variables: formats <chr>,
## #   refresh_rate <chr>, last_refreshed <date>
…
18.5.3 Duplicates?

The get_dupes function from the janitor package is useful for this.

get_dupes(delay_2019)

## No variable names specified - using all columns.

## # A tibble: 158 x 11
##    date                time  day   station code  min_delay min_gap bound line 
##    <dttm>              <chr> <chr> <chr>   <chr>     <dbl>   <dbl> <chr> <chr>
##  1 2019-01-01 00:00:00 08:18 Tues… DONLAN… MUESA         5      10 W     BD   
##  2 2019-01-01 00:00:00 08:18 Tues… DONLAN… MUESA         5      10 W     BD   
##  3 2019-02-01 00:00:00 05:51 Frid… SCARB … MRTO         10      15 S     SRT  
##  4 2019-02-01 00:00:00 05:51 Frid… SCARB … MRTO         10      15 S     SRT  
##  5 2019-02-01 00:00:00 06:45 Frid… MIDLAN… MRWEA         3       8 S     SRT  
##  6 2019-02-01 00:00:00 06:45 Frid… MIDLAN… MRWEA         3       8 S     SRT  
##  7 2019-02-01 00:00:00 06:55 Frid… LAWREN… ERDO          0       0 S     SRT  
##  8 2019-02-01 00:00:00 06:55 Frid… LAWREN… ERDO          0       0 S     SRT  
##  9 2019-02-01 00:00:00 07:16 Frid… MCCOWA… MRWEA         5      10 N     SRT  
## 10 2019-02-01 00:00:00 07:16 Frid… MCCOWA… MRWEA         5      10 N     SRT  
## # … with 148 more rows, and 2 more variables: vehicle <dbl>, dupe_count <int>
…
## Joining, by = "code_srt"

The 455 min delay due to ‘Rail Related Problem’ is an outlier.

delay_2019 %>% 
  left_join(delay_codes %>% rename(code = `SUB RMENU CODE`, code_desc = `CODE DESCRIPTION...3`) %>% select(code, code_desc)) %>% 
  arrange(-min_delay) %>% 
  select(date, time, station, line, min_delay, code, code_desc)

## Joining, by = c("code", "code_desc")

## # A tibble: 18,697 x 7
##    date                time  station     line  min_delay code  code_desc        
##    <dttm>              <chr> <chr>       <chr>     <dbl> <chr> <chr>            
##  1 2019-06-25 00:00:00 18:48 WILSON TO … YU          455 PUTR  Rail Related Pro…
##  2 2019-02-12 00:00:00 20:28 LAWRENCE E… SRT         284 MRWEA Weather Reports …
##  3 2019-06-05 00:00:00 12:42 UNION TO S… YU          250 MUPLA Fire/Smoke Plan A
##  4 2019-10-22 00:00:00 14:22 LAWRENCE S… YU          228 PUTS  Structure Relate…
##  5 2019-09-26 00:00:00 11:38 YORK MILLS… YU          193 MUPR1 Priority One - T…
##  6 2019-06-08 00:00:00 08:51 SPADINA BD… BD          180 MUPLB Fire/Smoke Plan …
##  7 2019-12-02 00:00:00 06:59 DUNDAS WES… BD          176 MUPLB Fire/Smoke Plan …
##  8 2019-01-29 00:00:00 05:46 VICTORIA P… BD          174 MUWEA Weather Reports …
##  9 2019-02-22 00:00:00 17:32 ELLESMERE … SRT         168 PRW   Rail Defect/Fast…
## 10 2019-02-10 00:00:00 07:53 BAYVIEW ST… SHP         165 PUSI  Signals or Relat…
## # … with 18,687 more rows
…
Plot the factor loadings. Some evidence of public v operator?

df_out_r <- as_tibble(delay_pca$rotation)
df_out_r$feature <- colnames(dwide[,3:ncol(dwide)])

df_out_r

## # A tibble: 38 x 39
##         PC1      PC2      PC3      PC4      PC5      PC6      PC7     PC8
##       <dbl>    <dbl>    <dbl>    <dbl>    <dbl>    <dbl>    <dbl>   <dbl>
##  1 -0.0412   0.0638   1.33e-2 -4.67e-2  0.0246   0.0184  -0.00363  0.0198
##  2 -0.0332  -0.00469 -4.14e-2 -7.51e-3  0.0201  -0.0122  -0.0914  -0.0903
##  3 -0.135    0.207    2.37e-2 -1.44e-1  0.135   -0.0381  -0.00931 -0.320 
##  4 -0.0652   0.0475  -4.43e-2 -2.51e-2 -0.00139 -0.0748  -0.144   -0.428 
##  5 -0.00443  0.00878 -4.99e-5 -8.30e-4  0.00967  0.00954 -0.0160  -0.0144
##  6 -0.0268  -0.00722 -4.39e-3  5.34e-4 -0.0151  -0.0125  -0.00381 -0.0423
##  7 -0.0813   0.0960  -4.62e-2  4.79e-2 -0.0978  -0.0365  -0.0766   0.278 
##  8 -0.0117   0.0135   5.48e-3 -2.94e-2  0.0125   0.0377  -0.0790  -0.0321
##  9 -0.516    0.655   -1.77e-2 -1.62e-1 -0.221   -0.287   -0.184    0.0465
## 10 -0.151    0.0826   5.48e-2  3.52e-1 -0.397    0.281    0.110    0.477 
## # … with 28 more rows, and 31 more variables: PC9 <dbl>, PC10 <dbl>,
## #   PC11 <dbl>, PC12 <dbl>, PC13 <dbl>, PC14 <dbl>, PC15 <dbl>, PC16 <dbl>,
## #   PC17 <dbl>, PC18 <dbl>, PC19 <dbl>, PC20 <dbl>, PC21 <dbl>, PC22 <dbl>,
## #   PC23 <dbl>, PC24 <dbl>, PC25 <dbl>, PC26 <dbl>, PC27 <dbl>, PC28 <dbl>,
## #   PC29 <dbl>, PC30 <dbl>, PC31 <dbl>, PC32 <dbl>, PC33 <dbl>, PC34 <dbl>,
## #   PC35 <dbl>, PC36 <dbl>, PC37 <dbl>, PC38 <dbl>, feature <chr>
…
