2 Lab - Getting started | Telling Stories with Data
…
How do we get there? The pivot_longer and pivot_wider functions. Notice that the function has a bunch of arguments. You can find out more about the arguments by looking at the function’s help file: ?pivot_longer.

mortality_data <- pivot_longer(data = mortality_data, 
                               cols = Female:Total, 
                               names_to = "sex", 
                               values_to = "rate")
mortality_data

## # A tibble: 30,303 x 4
##     Year Age   sex    rate    
##    <dbl> <chr> <chr>  <chr>   
##  1  1921 0     Female 0.105821
##  2  1921 0     Male   0.138250
##  3  1921 0     Total  0.122259
##  4  1921 1     Female 0.015593
##  5  1921 1     Male   0.017806
##  6  1921 1     Total  0.016710
##  7  1921 2     Female 0.007409
##  8  1921 2     Male   0.008521
##  9  1921 2     Total  0.007970
## 10  1921 3     Female 0.005442
## # … with 30,293 more rows
…
2.2.2 Select

Select is selecting a column. Get cod

infant_mortality %>% 
  select(cod) 

## # A tibble: 17,169 x 1
##    cod      
##    <chr>    
##  1 peri_oth 
##  2 cong_mal 
##  3 peri_inf 
##  4 peri_comp
##  5 peri_resp
##  6 cong_mal 
##  7 peri_inf 
##  8 sids     
##  9 cong_mal 
## 10 cong_mal 
## # … with 17,159 more rows
…
You can get a vector from select by using pull

infant_mortality %>% 
  select(cod) %>% 
  pull() %>% 
  head()

## [1] "peri_oth"  "cong_mal"  "peri_inf"  "peri_comp" "peri_resp" "cong_mal"

You can also use select to get rid of columns:

infant_mortality %>% 
  select(-cod) 

## # A tibble: 17,169 x 7
##    sex    aged race   gest ucod  mom_age mom_age_group
##    <chr> <dbl> <chr> <dbl> <chr>   <dbl> <fct>        
##  1 F         0 NHW      27 P832       30 30           
##  2 M         0 NHW      36 Q913       32 30           
##  3 M         8 NHW      44 P360       25 25           
##  4 F         0 NHB      21 P072       29 25           
##  5 M         8 NHB      26 P220       23 20           
##  6 M        17 NHW      39 Q249       34 30           
##  7 F        10 NHB      26 P369       27 25           
##  8 F        75 NHB      40 W84        24 20           
##  9 M        89 NHB      36 Q913       39 35           
## 10 M        76 NHB      39 Q234       30 30           
## # … with 17,159 more rows

2.2.3 Filter

Filter allows you to select rows. Filter all males:

infant_mortality %>% 
  filter(sex=="M") 

## # A tibble: 9,669 x 8
##    sex    aged race   gest ucod  cod       mom_age mom_age_group
##    <chr> <dbl> <chr> <dbl> <chr> <chr>       <dbl> <fct>        
##  1 M         0 NHW      36 Q913  cong_mal       32 30           
##  2 M         8 NHW      44 P360  peri_inf       25 25           
##  3 M         8 NHB      26 P220  peri_resp      23 20           
##  4 M        17 NHW      39 Q249  cong_mal       34 30           
##  5 M        89 NHB      36 Q913  cong_mal       39 35           
##  6 M        76 NHB      39 Q234  cong_mal       30 30           
##  7 M       123 NHB      30 R95   sids           21 20           
##  8 M       205 NHW      39 R090  other          33 30           
##  9 M         0 NHW      28 P290  peri_resp      31 30           
## 10 M        29 NHB      39 J189  resp           22 20           
## # … with 9,659 more rows

Two conditions: male babies who died of SIDS (AND)

infant_mortality %>% 
  filter(sex=="M",cod=="sids")

## # A tibble: 1,264 x 8
##    sex    aged race   gest ucod  cod   mom_age mom_age_group
##    <chr> <dbl> <chr> <dbl> <chr> <chr>   <dbl> <fct>        
##  1 M       123 NHB      30 R95   sids       21 20           
##  2 M        30 NHB      34 R95   sids       24 20           
##  3 M         3 NHW      44 R95   sids       32 30           
##  4 M        71 NHW      37 R95   sids       41 40           
##  5 M        52 NHB      38 R95   sids       31 30           
##  6 M        86 NHW      38 R95   sids       40 40           
##  7 M       108 NHW      40 W75   sids       32 30           
##  8 M        42 NHB      39 W76   sids       27 25           
##  9 M       250 NHW      38 R95   sids       34 30           
## 10 M       167 NHB      39 W78   sids       20 20           
## # … with 1,254 more rows

Two conditions: male babies OR babies who died of SIDS

infant_mortality %>% 
  filter(sex=="M"|cod=="sids")

## # A tibble: 10,534 x 8
##    sex    aged race   gest ucod  cod       mom_age mom_age_group
##    <chr> <dbl> <chr> <dbl> <chr> <chr>       <dbl> <fct>        
##  1 M         0 NHW      36 Q913  cong_mal       32 30           
##  2 M         8 NHW      44 P360  peri_inf       25 25           
##  3 M         8 NHB      26 P220  peri_resp      23 20           
##  4 M        17 NHW      39 Q249  cong_mal       34 30           
##  5 F        75 NHB      40 W84   sids           24 20           
##  6 M        89 NHB      36 Q913  cong_mal       39 35           
##  7 M        76 NHB      39 Q234  cong_mal       30 30           
##  8 M       123 NHB      30 R95   sids           21 20           
##  9 M       205 NHW      39 R090  other          33 30           
## 10 M         0 NHW      28 P290  peri_resp      31 30           
## # … with 10,524 more rows

Build these up: using with select.

infant_mortality %>% 
  filter(sex=="M", cod=="sids") %>% 
  select(aged)

## # A tibble: 1,264 x 1
##     aged
##    <dbl>
##  1   123
##  2    30
##  3     3
##  4    71
##  5    52
##  6    86
##  7   108
##  8    42
##  9   250
## 10   167
## # … with 1,254 more rows

& is the same as ,

infant_mortality %>% 
  filter(cod=="sids"&sex=="M")

## # A tibble: 1,264 x 8
##    sex    aged race   gest ucod  cod   mom_age mom_age_group
##    <chr> <dbl> <chr> <dbl> <chr> <chr>   <dbl> <fct>        
##  1 M       123 NHB      30 R95   sids       21 20           
##  2 M        30 NHB      34 R95   sids       24 20           
##  3 M         3 NHW      44 R95   sids       32 30           
##  4 M        71 NHW      37 R95   sids       41 40           
##  5 M        52 NHB      38 R95   sids       31 30           
##  6 M        86 NHW      38 R95   sids       40 40           
##  7 M       108 NHW      40 W75   sids       32 30           
##  8 M        42 NHB      39 W76   sids       27 25           
##  9 M       250 NHW      38 R95   sids       34 30           
## 10 M       167 NHB      39 W78   sids       20 20           
## # … with 1,254 more rows
…
## # A tibble: 1 x 8
##   sex    aged race   gest ucod  cod      mom_age mom_age_group
##   <chr> <dbl> <chr> <dbl> <chr> <chr>      <dbl> <fct>        
## 1 M         8 NHW      44 P360  peri_inf      25 25

2.2.4 Arrange

arrange is ordering data.

Arrange by aged

infant_mortality %>% 
  arrange(aged)

## # A tibble: 17,169 x 8
##    sex    aged race   gest ucod  cod       mom_age mom_age_group
##    <chr> <dbl> <chr> <dbl> <chr> <chr>       <dbl> <fct>        
##  1 F         0 NHW      27 P832  peri_oth       30 30           
##  2 M         0 NHW      36 Q913  cong_mal       32 30           
##  3 F         0 NHB      21 P072  peri_comp      29 25           
##  4 F         0 NHB      33 Q042  cong_mal       25 25           
##  5 M         0 NHW      28 P290  peri_resp      31 30           
##  6 F         0 NHB      24 P832  peri_oth       22 20           
##  7 F         0 NHW      37 Q039  cong_mal       18 15           
##  8 F         0 NHW      26 P072  peri_comp      34 30           
##  9 F         0 NHW      38 Q042  cong_mal       24 20           
## 10 F         0 NHB      36 Q000  cong_mal       18 15           
## # … with 17,159 more rows

Arrange in descending order

infant_mortality %>% 
  arrange(-aged)

## # A tibble: 17,169 x 8
##    sex    aged race   gest ucod  cod          mom_age mom_age_group
##    <chr> <dbl> <chr> <dbl> <chr> <chr>          <dbl> <fct>        
##  1 F       364 NHW      41 V877  other             19 15           
##  2 F       364 NHW      37 V892  other             17 15           
##  3 M       364 NHW      40 V892  other             31 30           
##  4 M       363 NHB      37 W73   sids              24 20           
##  5 M       363 NHW      32 Q249  cong_mal          33 30           
##  6 F       363 NHW      39 A403  infection         37 35           
##  7 M       363 NHW      35 G409  other             22 20           
##  8 M       363 NHW      35 Q249  cong_mal          18 15           
##  9 F       363 NHW      39 Y09   maltreatment      31 30           
## 10 M       362 NHW      40 A499  infection         27 25           
## # … with 17,159 more rows

Arrange by multiple things (age of death and age of mom)

infant_mortality %>% 
  arrange(aged, mom_age)

## # A tibble: 17,169 x 8
##    sex    aged race   gest ucod  cod          mom_age mom_age_group
##    <chr> <dbl> <chr> <dbl> <chr> <chr>          <dbl> <fct>        
##  1 F         0 NHB      23 P039  peri_comp         14 <NA>         
##  2 M         0 NHB      24 P015  peri_comp         14 <NA>         
##  3 M         0 NHB      21 P072  peri_comp         14 <NA>         
##  4 M         0 NHW      23 P072  peri_comp         14 <NA>         
##  5 M         0 NHB      99 Y08   maltreatment      14 <NA>         
##  6 M         0 NHW      22 P072  peri_comp         14 <NA>         
##  7 M         0 NHW      24 P072  peri_comp         14 <NA>         
##  8 F         0 NHW      34 P073  peri_comp         14 <NA>         
##  9 F         0 NHB      19 P073  peri_comp         14 <NA>         
## 10 M         0 NHW      99 R99   unknown           14 <NA>         
## # … with 17,159 more rows

What happens if we do two arranges:

infant_mortality %>% 
  arrange(aged) %>% 
  arrange(mom_age)

## # A tibble: 17,169 x 8
##    sex    aged race   gest ucod  cod          mom_age mom_age_group
##    <chr> <dbl> <chr> <dbl> <chr> <chr>          <dbl> <fct>        
##  1 F         0 NHB      23 P039  peri_comp         14 <NA>         
##  2 M         0 NHB      24 P015  peri_comp         14 <NA>         
##  3 M         0 NHB      21 P072  peri_comp         14 <NA>         
##  4 M         0 NHW      23 P072  peri_comp         14 <NA>         
##  5 M         0 NHB      99 Y08   maltreatment      14 <NA>         
##  6 M         0 NHW      22 P072  peri_comp         14 <NA>         
##  7 M         0 NHW      24 P072  peri_comp         14 <NA>         
##  8 F         0 NHW      34 P073  peri_comp         14 <NA>         
##  9 F         0 NHB      19 P073  peri_comp         14 <NA>         
## 10 M         0 NHW      99 R99   unknown           14 <NA>         
## # … with 17,159 more rows

Same as

infant_mortality %>% 
  arrange(mom_age, aged)

## # A tibble: 17,169 x 8
##    sex    aged race   gest ucod  cod          mom_age mom_age_group
##    <chr> <dbl> <chr> <dbl> <chr> <chr>          <dbl> <fct>        
##  1 F         0 NHB      23 P039  peri_comp         14 <NA>         
##  2 M         0 NHB      24 P015  peri_comp         14 <NA>         
##  3 M         0 NHB      21 P072  peri_comp         14 <NA>         
##  4 M         0 NHW      23 P072  peri_comp         14 <NA>         
##  5 M         0 NHB      99 Y08   maltreatment      14 <NA>         
##  6 M         0 NHW      22 P072  peri_comp         14 <NA>         
##  7 M         0 NHW      24 P072  peri_comp         14 <NA>         
##  8 F         0 NHW      34 P073  peri_comp         14 <NA>         
##  9 F         0 NHB      19 P073  peri_comp         14 <NA>         
## 10 M         0 NHW      99 R99   unknown           14 <NA>         
## # … with 17,159 more rows

2.2.5 group_by

We might want to arrange by age of death within the sex group

infant_mortality %>% 
  group_by(sex) %>% 
  arrange(aged)

## # A tibble: 17,169 x 8
## # Groups:   sex [2]
##    sex    aged race   gest ucod  cod       mom_age mom_age_group
##    <chr> <dbl> <chr> <dbl> <chr> <chr>       <dbl> <fct>        
##  1 F         0 NHW      27 P832  peri_oth       30 30           
##  2 M         0 NHW      36 Q913  cong_mal       32 30           
##  3 F         0 NHB      21 P072  peri_comp      29 25           
##  4 F         0 NHB      33 Q042  cong_mal       25 25           
##  5 M         0 NHW      28 P290  peri_resp      31 30           
##  6 F         0 NHB      24 P832  peri_oth       22 20           
##  7 F         0 NHW      37 Q039  cong_mal       18 15           
##  8 F         0 NHW      26 P072  peri_comp      34 30           
##  9 F         0 NHW      38 Q042  cong_mal       24 20           
## 10 F         0 NHB      36 Q000  cong_mal       18 15           
## # … with 17,159 more rows
…
Now, let’s make a new variable that is total days in existence (aged+ gest_days)

infant_mortality %>% 
  mutate(tot_life = aged+gest_days)

## # A tibble: 17,169 x 10
##    sex    aged race   gest ucod  cod    mom_age mom_age_group gest_days tot_life
##    <chr> <dbl> <chr> <dbl> <chr> <chr>    <dbl> <fct>             <dbl>    <dbl>
##  1 F         0 NHW      27 P832  peri_…      30 30                  189      189
##  2 M         0 NHW      36 Q913  cong_…      32 30                  252      252
##  3 M         8 NHW      44 P360  peri_…      25 25                  308      316
##  4 F         0 NHB      21 P072  peri_…      29 25                  147      147
##  5 M         8 NHB      26 P220  peri_…      23 20                  182      190
##  6 M        17 NHW      39 Q249  cong_…      34 30                  273      290
##  7 F        10 NHB      26 P369  peri_…      27 25                  182      192
##  8 F        75 NHB      40 W84   sids        24 20                  280      355
##  9 M        89 NHB      36 Q913  cong_…      39 35                  252      341
## 10 M        76 NHB      39 Q234  cong_…      30 30                  273      349
## # … with 17,159 more rows
…
infant_mortality %>% 
  summarise(max_mom_age = max(mom_age))

## # A tibble: 1 x 1
##   max_mom_age
##         <dbl>
## 1          50

Check:

infant_mortality %>% 
  arrange(-mom_age)

## # A tibble: 17,169 x 9
##    sex    aged race   gest ucod  cod       mom_age mom_age_group gest_days
##    <chr> <dbl> <chr> <dbl> <chr> <chr>       <dbl> <fct>             <dbl>
##  1 M         9 NHB      34 Q999  cong_mal       50 45                  238
##  2 M        65 NHW      32 I514  heart          50 45                  224
##  3 M         2 NHB      45 P293  peri_resp      50 45                  315
##  4 M        87 NHW      30 A090  infection      49 45                  210
##  5 M        13 NHB      27 P912  peri_oth       49 45                  189
##  6 F         0 NHW      24 P220  peri_resp      48 45                  168
##  7 F        41 NHB      27 A090  infection      48 45                  189
##  8 F         9 NHW      26 P280  peri_resp      48 45                  182
##  9 F        88 NHB      35 Q210  cong_mal       48 45                  245
## 10 F       123 NHW      41 Q913  cong_mal       47 45                  287
## # … with 17,159 more rows
…
We can group by and summarise for multiple groups at a time:

mean age of death by cod and race of mother

infant_mortality %>% 
  group_by(cod, race) %>% 
  summarise(mean_age_of_death = round(mean(aged), 2)) %>% 
  arrange(-mean_age_of_death, race)

## # A tibble: 24 x 3
## # Groups:   cod [12]
##    cod          race  mean_age_of_death
##    <chr>        <chr>             <dbl>
##  1 resp         NHB               146. 
##  2 maltreatment NHB               146. 
##  3 maltreatment NHW               141. 
##  4 resp         NHW               128. 
##  5 other        NHW               113. 
##  6 other        NHB               108. 
##  7 sids         NHW               104. 
##  8 heart        NHB               104  
##  9 heart        NHW                99.9
## 10 sids         NHB                99.4
## # … with 14 more rows
…
Could also do this as a mutate:

infant_mortality %>% 
  group_by(cod) %>% 
  mutate(max_age_death = max(aged)) %>% 
  arrange(cod)

## # A tibble: 17,169 x 10
## # Groups:   cod [12]
##    sex    aged race   gest ucod  cod   mom_age mom_age_group gest_days
##    <chr> <dbl> <chr> <dbl> <chr> <chr>   <dbl> <fct>             <dbl>
##  1 M         0 NHW      36 Q913  cong…      32 30                  252
##  2 M        17 NHW      39 Q249  cong…      34 30                  273
##  3 M        89 NHB      36 Q913  cong…      39 35                  252
##  4 M        76 NHB      39 Q234  cong…      30 30                  273
##  5 F         0 NHB      33 Q042  cong…      25 25                  231
##  6 F         0 NHW      37 Q039  cong…      18 15                  259
##  7 M        51 NHW      38 Q917  cong…      20 20                  266
##  8 F         0 NHW      38 Q042  cong…      24 20                  266
##  9 F         0 NHB      36 Q000  cong…      18 15                  252
## 10 M         0 NHW      18 Q909  cong…      40 40                  126
## # … with 17,159 more rows, and 1 more variable: max_age_death <dbl>

Could be useful: use this as an intermediate step to get a new variable that is looking at age of death reelative to the maximum

infant_mortality %>% 
  group_by(cod) %>% 
  mutate(max_age_death = max(aged)) %>% 
  mutate(frac_max = aged/max_age_death)

## # A tibble: 17,169 x 11
## # Groups:   cod [12]
##    sex    aged race   gest ucod  cod   mom_age mom_age_group gest_days
##    <chr> <dbl> <chr> <dbl> <chr> <chr>   <dbl> <fct>             <dbl>
##  1 F         0 NHW      27 P832  peri…      30 30                  189
##  2 M         0 NHW      36 Q913  cong…      32 30                  252
##  3 M         8 NHW      44 P360  peri…      25 25                  308
##  4 F         0 NHB      21 P072  peri…      29 25                  147
##  5 M         8 NHB      26 P220  peri…      23 20                  182
##  6 M        17 NHW      39 Q249  cong…      34 30                  273
##  7 F        10 NHB      26 P369  peri…      27 25                  182
##  8 F        75 NHB      40 W84   sids       24 20                  280
##  9 M        89 NHB      36 Q913  cong…      39 35                  252
## 10 M        76 NHB      39 Q234  cong…      30 30                  273
## # … with 17,159 more rows, and 2 more variables: max_age_death <dbl>,
## #   frac_max <dbl>
…
